com\bandi\test\service\ExtUserServiceTest.class
com\bandi\test\mapper\SourceDispatchInnerUserMapperTest.class
com\bandi\test\mapper\UserDetailMapperTest.class
com\bandi\ResourceAPITest.class
com\bandi\test\mapper\PasswordChangeHistoryMapperTest.class
com\bandi\test\mapper\SyncIntUserToStdMapperTest.class
com\bandi\test\controller\ClientController_KAISTTest.class
com\bandi\test\service\SyncOrganizationService_KAISTTest.class
com\bandi\test\service\PasswordChangeHistoryServiceTest.class
com\bandi\test\mapper\SourceConcurrentUserMapperTest.class
com\bandi\test\mapper\OtpHistoryMapperTest.class
com\bandi\test\mapper\UserLoginHistoryMapperTest.class
com\bandi\OTPTest.class
com\bandi\test\mapper\AccessElementMapperTest.class
com\bandi\test\mapper\ParametersMapperTest.class
com\bandi\test\mapper\OtpServiceMenuMapperTest.class
com\bandi\test\controller\NoticeControllerTest.class
com\bandi\test\mapper\SyncUserMapperTest.class
com\bandi\test\service\AccessElementServiceTest.class
com\bandi\test\mapper\EaiPersonMapperTest.class
com\bandi\test\mapper\SyncResourceMapperTest.class
com\bandi\excel\ExcelUploader.class
com\bandi\test\service\ResourceServiceTest.class
com\bandi\test\mapper\SmsMapperTest.class
com\bandi\test\mapper\MessageInfoMapperTest.class
com\bandi\test\controller\SyncResourceControllerTest.class
com\bandi\test\mapper\IdentityAuthenticationMapperTest.class
com\bandi\test\service\SyncClientResourceServiceTest.class
com\bandi\test\service\CheckDelegateRoleServiceTest.class
com\bandi\test\mapper\ServiceRequestMapperTest.class
com\bandi\test\controller\MessageHistoryControllerTest.class
com\bandi\test\controller\FileManagerControllerTest.class
com\bandi\test\controller\RoleMasterControllerTest.class
com\bandi\test\service\CodeDetailServiceTest.class
com\bandi\test\mapper\DelegateHistoryMapperTest.class
com\bandi\test\service\SyncGroupService_KAISTTest.class
com\bandi\test\mapper\ExtUserMapperTest.class
com\bandi\test\mapper\MessageHistoryMapperTest.class
com\bandi\test\mapper\SyncGroupMapperTest.class
com\bandi\test\mapper\GroupMapperTest.class
com\bandi\MyTest.class
com\bandi\test\mapper\TermsMapperTest.class
com\bandi\test\mapper\SyncExtUserToStdMapperTest.class
com\bandi\test\mapper\UserMapperTest.class
com\bandi\test\service\NoticeServiceTest.class
com\bandi\test\mapper\CodeDetailMapperTest.class
com\bandi\test\mapper\StandardMapperTest.class
com\bandi\test\controller\UserDetailControllerTest.class
com\bandi\test\controller\TermsControllerTest.class
com\bandi\test\service\ClientApiServiceTest.class
com\bandi\test\mapper\CacheMapperTest.class
com\bandi\test\mapper\SourceGroupMapperTest.class
com\bandi\test\controller\DelegateHistoryControllerTest.class
com\bandi\test\service\IdentityAuthenticationServiceTest.class
com\bandi\test\mapper\NoticeMapperTest.class
com\bandi\test\mapper\ClientMapperTest.class
com\bandi\test\service\OtpSecurityAreaServiceTest.class
com\bandi\test\service\InitechNXApiServiceTest.class
com\bandi\test\service\OtpServiceMenuServiceTest.class
com\bandi\test\service\OtpHistoryServiceTest.class
com\bandi\test\service\MessageInfoServiceTest.class
com\bandi\test\service\FileManagerServiceTest.class
com\bandi\PropertyEncryptTest.class
com\bandi\test\controller\ConfigurationController_KAISTTest.class
com\bandi\test\controller\MessageInfoControllerTest.class
com\bandi\test\mapper\SourceExtraJobUserMapperTest.class
com\bandi\test\mapper\SourceResourceMapperTest.class
com\bandi\test\mapper\SourceUserMapperTest.class
com\bandi\test\service\GroupService_KAISTTest.class
com\bandi\test\service\SyncResourceServiceTest.class
com\bandi\test\service\ClientService_KAISTTest.class
com\bandi\test\mapper\SourceGroupHeadUserMapperTest.class
com\bandi\test\service\InitechClientApiServiceTest.class
com\bandi\test\controller\OtpServiceMenuControllerTest.class
com\bandi\test\service\UserService_KAISTTest.class
com\bandi\test\service\HttpConnServiceTest.class
com\bandi\test\mapper\DelegateResourceMapperTest.class
com\bandi\test\controller\CodeDetailControllerTest.class
com\bandi\test\service\UserDetailServiceTest.class
com\bandi\test\mapper\AdminMapperTest.class
com\bandi\test\controller\ExtUserControllerTest.class
com\bandi\SyncDetailToExtuserTest.class
com\bandi\test\service\DelegateHistoryServiceTest.class
com\bandi\test\controller\ResourceControllerTest.class
com\bandi\test\service\MailService_KAISTTest.class
com\bandi\test\service\RoleMemberServiceTest.class
com\bandi\test\controller\RoleMemberControllerTest.class
com\bandi\test\controller\IdentityAuthenticationControllerTest.class
com\bandi\ChangeMainAdminIdNPwTest.class
com\bandi\test\service\SyncUserService_KAISTTest.class
com\bandi\test\controller\OtpSecurityAreaControllerTest.class
com\bandi\test\mapper\RoleMasterMapperTest.class
com\bandi\test\service\UserLoginHistoryServiceTest.class
com\bandi\test\controller\UserLoginHistoryControllerTest.class
com\bandi\test\service\MessageHistoryServiceTest.class
com\bandi\test\controller\UserController_KAISTTest.class
com\bandi\test\mapper\SourceDispatchOuterUserMapperTest.class
com\bandi\test\controller\AccessElementControllerTest.class
com\bandi\test\service\TermsServiceTest.class
com\bandi\test\controller\ServiceRequestControllerTest.class
com\bandi\test\controller\OtpHistoryControllerTest.class
com\bandi\test\controller\PasswordChangeHistoryControllerTest.class
com\bandi\test\mapper\FileManagerMapperTest.class
com\bandi\test\mapper\ResourceMapperTest.class
com\bandi\excel\ExcelParse.class
com\bandi\test\controller\UserAuthControllerTest.class
com\bandi\test\mapper\OtpSecurityAreaMapperTest.class
com\bandi\test\mapper\RoleMemberMapperTest.class
com\bandi\test\service\ServiceRequestServiceTest.class
com\bandi\test\service\RoleMasterServiceTest.class
com\bandi\test\controller\KaistSSOClientControllerTest.class
com\bandi\test\service\AbstractClientApiServiceTest.class
com\bandi\test\controller\UserFrontEndControllerTest.class
